…
postseasonstats1 %>% pivot_wider(names_from = "Name", values_from = "GP")

## # A tibble: 51 x 73
##    Team   Rank POS     MIN   PTS   FGM   FGA `FG%` `3PM` `3PA` `3P%`   FTM   FTA
##    <chr> <dbl> <chr> <dbl> <dbl> <dbl> <dbl> <dbl> <dbl> <dbl> <dbl> <dbl> <dbl>
##  1 GS        1 SF     36.8  32.3  10.4  20.3  51.4   2.9   6.7  43.8   8.5   9.4
##  2 HOU       2 SG     38.5  31.6   9.9  24    41.3   4.4  12.5  35     7.5   8.9
##  3 TOR       3 SF     39.1  30.5  10.1  20.7  49     2.3   6    37.9   8     9  
##  4 OKC       4 SG     40.8  28.6   8.8  20.2  43.6   3     9.4  31.9   8     9.8
##  5 GS        5 PG     38.5  28.2   8.6  19.6  44.1   4.2  11.1  37.7   6.7   7.1
##  6 POR       6 PG     40.6  26.9   8.6  20.6  41.8   3.7   9.9  37.3   5.9   7.1
##  7 MIL       7 PF     34.3  25.5   8.6  17.4  49.4   1.2   3.7  32.7   7.1  11.2
##  8 DEN       8 C      39.8  25.1   9.4  18.6  50.6   1.6   4    39.3   4.7   5.6
##  9 POR       9 SG     39.7  24.7   9.6  21.9  44     2.9   7.3  39.3   2.6   3.5
## 10 OKC      10 PG     39.4  22.8   8    22.2  36     2.2   6.8  32.4   4.6   5.2
## # … with 41 more rows, and 60 more variables: `FT%` <dbl>, REB <dbl>,
## #   AST <dbl>, STL <dbl>, BLK <dbl>, TO <dbl>, DD2 <dbl>, TD3 <dbl>, PER <dbl>,
## #   `Kevin Durant` <dbl>, `James Harden` <dbl>, `Kawhi Leonard` <dbl>, `Paul
## #   George` <dbl>, `Stephen Curry` <dbl>, `Damian Lillard` <dbl>, `Giannis
## #   Antetokounmpo` <dbl>, `Nikola Jokic` <dbl>, `CJ McCollum` <dbl>, `Russell
## #   Westbrook` <dbl>, `DeMar DeRozan` <dbl>, `Lou Williams` <dbl>, `Donovan
## #   Mitchell` <dbl>, `Kyrie Irving` <dbl>, `Jamal Murray` <dbl>, `Klay
## #   Thompson` <dbl>, `Joel Embiid` <dbl>, `LaMarcus Aldridge` <dbl>, `Danilo
## #   Gallinari` <dbl>, `Jimmy Butler` <dbl>, `Pascal Siakam` <dbl>, `Montrezl
## #   Harrell` <dbl>, `Eric Gordon` <dbl>, `Chris Paul` <dbl>, `Khris
## #   Middleton` <dbl>, `Tobias Harris` <dbl>, `Jayson Tatum` <dbl>, `Derrick
## #   White` <dbl>, `Kyle Lowry` <dbl>, `Paul Millsap` <dbl>, `Ben
## #   Simmons` <dbl>, `Al Horford` <dbl>, `Jaylen Brown` <dbl>, `Eric
## #   Bledsoe` <dbl>, `Marcus Morris Sr.` <dbl>, `JJ Redick` <dbl>, `Draymond
## #   Green` <dbl>, `George Hill` <dbl>, `Enes Kanter` <dbl>, `P.J.
## #   Tucker` <dbl>, `Brook Lopez` <dbl>, `Rodney Hood` <dbl>, `Clint
## #   Capela` <dbl>, `Marc Gasol` <dbl>, `Serge Ibaka` <dbl>, `Maurice
## #   Harkless` <dbl>, `Malik Beasley` <dbl>, `Fred VanVleet` <dbl>, `Al-Farouq
## #   Aminu` <dbl>, `Danny Green` <dbl>, `Norman Powell` <dbl>

postseasonstats1 %>% pivot_longer(c("GP"), names_to = "Games", 
    values_to = "Games Played")

## # A tibble: 51 x 25
##    Name  Team   Rank POS     MIN   PTS   FGM   FGA `FG%` `3PM` `3PA` `3P%`   FTM
##    <chr> <chr> <dbl> <chr> <dbl> <dbl> <dbl> <dbl> <dbl> <dbl> <dbl> <dbl> <dbl>
##  1 Kevi… GS        1 SF     36.8  32.3  10.4  20.3  51.4   2.9   6.7  43.8   8.5
##  2 Jame… HOU       2 SG     38.5  31.6   9.9  24    41.3   4.4  12.5  35     7.5
##  3 Kawh… TOR       3 SF     39.1  30.5  10.1  20.7  49     2.3   6    37.9   8  
##  4 Paul… OKC       4 SG     40.8  28.6   8.8  20.2  43.6   3     9.4  31.9   8  
##  5 Step… GS        5 PG     38.5  28.2   8.6  19.6  44.1   4.2  11.1  37.7   6.7
##  6 Dami… POR       6 PG     40.6  26.9   8.6  20.6  41.8   3.7   9.9  37.3   5.9
##  7 Gian… MIL       7 PF     34.3  25.5   8.6  17.4  49.4   1.2   3.7  32.7   7.1
##  8 Niko… DEN       8 C      39.8  25.1   9.4  18.6  50.6   1.6   4    39.3   4.7
##  9 CJ M… POR       9 SG     39.7  24.7   9.6  21.9  44     2.9   7.3  39.3   2.6
## 10 Russ… OKC      10 PG     39.4  22.8   8    22.2  36     2.2   6.8  32.4   4.6
## # … with 41 more rows, and 12 more variables: FTA <dbl>, `FT%` <dbl>,
## #   REB <dbl>, AST <dbl>, STL <dbl>, BLK <dbl>, TO <dbl>, DD2 <dbl>, TD3 <dbl>,
## #   PER <dbl>, Games <chr>, `Games Played` <dbl>

regseasonstats %>% pivot_wider(names_from = "Name", values_from = "GP")

## # A tibble: 51 x 73
##    Team   Rank POS     MIN   PTS   FGM   FGA `FG%` `3PM` `3PA` `3P%`   FTM   FTA
##    <chr> <dbl> <chr> <dbl> <dbl> <dbl> <dbl> <dbl> <dbl> <dbl> <dbl> <dbl> <dbl>
##  1 HOU       1 SG     36.8  36.1  10.8  24.5  44.2   4.8  13.2  36.8   9.7  11  
##  2 OKC       2 SG     36.9  28     9.2  21    43.8   3.8   9.8  38.6   5.9   7  
##  3 MIL       3 PF     32.8  27.7  10    17.3  57.8   0.7   2.8  25.6   6.9   9.5
##  4 PHI       4 C      33.7  27.5   9.1  18.7  48.4   1.2   4.1  30     8.2  10.1
##  5 GS        5 PG     33.8  27.3   9.2  19.4  47.2   5.1  11.7  43.7   3.8   4.2
##  6 TOR       6 SF     34    26.6   9.3  18.8  49.6   1.9   5    37.1   6.1   7.1
##  7 GS        8 SF     34.6  26     9.2  17.7  52.1   1.8   5    35.3   5.7   6.5
##  8 POR       9 PG     35.5  25.8   8.5  19.2  44.4   3     8    36.9   5.9   6.4
##  9 BOS      14 PG     33    23.8   9    18.5  48.7   2.6   6.5  40.1   3.2   3.7
## 10 UTAH     15 SG     33.7  23.8   8.6  19.9  43.2   2.4   6.7  36.2   4.1   5.1
## # … with 41 more rows, and 60 more variables: `FT%` <dbl>, REB <dbl>,
## #   AST <dbl>, STL <dbl>, BLK <dbl>, TO <dbl>, DD2 <dbl>, TD3 <dbl>, PER <dbl>,
## #   `James Harden` <dbl>, `Paul George` <dbl>, `Giannis Antetokounmpo` <dbl>,
## #   `Joel Embiid` <dbl>, `Stephen Curry` <dbl>, `Kawhi Leonard` <dbl>, `Kevin
## #   Durant` <dbl>, `Damian Lillard` <dbl>, `Kyrie Irving` <dbl>, `Donovan
## #   Mitchell` <dbl>, `Russell Westbrook` <dbl>, `Klay Thompson` <dbl>,
## #   `LaMarcus Aldridge` <dbl>, `DeMar DeRozan` <dbl>, `CJ McCollum` <dbl>,
## #   `Nikola Jokic` <dbl>, `Tobias Harris` <dbl>, `Lou Williams` <dbl>, `Danilo
## #   Gallinari` <dbl>, `Jimmy Butler` <dbl>, `Khris Middleton` <dbl>, `Jamal
## #   Murray` <dbl>, `JJ Redick` <dbl>, `Pascal Siakam` <dbl>, `Ben
## #   Simmons` <dbl>, `Clint Capela` <dbl>, `Montrezl Harrell` <dbl>, `Eric
## #   Gordon` <dbl>, `Eric Bledsoe` <dbl>, `Jayson Tatum` <dbl>, `Chris
## #   Paul` <dbl>, `Serge Ibaka` <dbl>, `Kyle Lowry` <dbl>, `Marcus Morris
## #   Sr.` <dbl>, `Enes Kanter` <dbl>, `Al Horford` <dbl>, `Marc Gasol` <dbl>,
## #   `Jaylen Brown` <dbl>, `Paul Millsap` <dbl>, `Brook Lopez` <dbl>, `Derrick
## #   White` <dbl>, `Draymond Green` <dbl>, `George Hill` <dbl>, `P.J.
## #   Tucker` <dbl>, `Rodney Hood` <dbl>, `Maurice Harkless` <dbl>, `Malik
## #   Beasley` <dbl>, `Fred VanVleet` <dbl>, `Al-Farouq Aminu` <dbl>, `Danny
## #   Green` <dbl>, `Norman Powell` <dbl>

regseasonstats %>% pivot_longer(c("GP"), names_to = "Games", 
    values_to = "Games Played")

## # A tibble: 51 x 25
##    Name  Team   Rank POS     MIN   PTS   FGM   FGA `FG%` `3PM` `3PA` `3P%`   FTM
##    <chr> <chr> <dbl> <chr> <dbl> <dbl> <dbl> <dbl> <dbl> <dbl> <dbl> <dbl> <dbl>
##  1 Jame… HOU       1 SG     36.8  36.1  10.8  24.5  44.2   4.8  13.2  36.8   9.7
##  2 Paul… OKC       2 SG     36.9  28     9.2  21    43.8   3.8   9.8  38.6   5.9
##  3 Gian… MIL       3 PF     32.8  27.7  10    17.3  57.8   0.7   2.8  25.6   6.9
##  4 Joel… PHI       4 C      33.7  27.5   9.1  18.7  48.4   1.2   4.1  30     8.2
##  5 Step… GS        5 PG     33.8  27.3   9.2  19.4  47.2   5.1  11.7  43.7   3.8
##  6 Kawh… TOR       6 SF     34    26.6   9.3  18.8  49.6   1.9   5    37.1   6.1
##  7 Kevi… GS        8 SF     34.6  26     9.2  17.7  52.1   1.8   5    35.3   5.7
##  8 Dami… POR       9 PG     35.5  25.8   8.5  19.2  44.4   3     8    36.9   5.9
##  9 Kyri… BOS      14 PG     33    23.8   9    18.5  48.7   2.6   6.5  40.1   3.2
## 10 Dono… UTAH     15 SG     33.7  23.8   8.6  19.9  43.2   2.4   6.7  36.2   4.1
## # … with 41 more rows, and 12 more variables: FTA <dbl>, `FT%` <dbl>,
## #   REB <dbl>, AST <dbl>, STL <dbl>, BLK <dbl>, TO <dbl>, DD2 <dbl>, TD3 <dbl>,
## #   PER <dbl>, Games <chr>, `Games Played` <dbl>
…
joined_data %>% arrange((Team), desc(PTS), (POS))

## # A tibble: 102 x 24
##    Name  Team   Rank POS      GP   MIN   PTS   FGM   FGA `FG%` `3PM` `3PA` `3P%`
##    <chr> <chr> <dbl> <chr> <dbl> <dbl> <dbl> <dbl> <dbl> <dbl> <dbl> <dbl> <dbl>
##  1 Kyri… BOS      14 PG       67  33    23.8   9    18.5  48.7   2.6   6.5  40.1
##  2 Kyri… BOS      14 PG        9  36.7  21.3   7.7  19.9  38.5   2     6.4  31  
##  3 Jays… BOS      59 PF       79  31.1  15.7   5.9  13.1  45     1.5   3.9  37.3
##  4 Jays… BOS      28 PF        9  32.8  15.2   5.4  12.4  43.8   1.1   3.4  32.3
##  5 Al H… BOS      34 PF        9  34.4  13.9   5.1  12.2  41.8   2     4.9  40.9
##  6 Marc… BOS      77 SF       75  27.9  13.9   5    11.3  44.7   1.9   5.2  37.5
##  7 Jayl… BOS      34 SG        9  30.4  13.9   4.9   9.7  50.6   1.6   4.4  35  
##  8 Marc… BOS      36 SF        9  28.2  13.7   4.6   8.8  51.9   2     4.4  45  
##  9 Al H… BOS      84 PF       68  29    13.6   5.7  10.6  53.5   1.1   3    36  
## 10 Jayl… BOS      88 SG       74  25.9  13     5    10.7  46.5   1.3   3.7  34.4
## # … with 92 more rows, and 11 more variables: FTM <dbl>, FTA <dbl>,
## #   `FT%` <dbl>, REB <dbl>, AST <dbl>, STL <dbl>, BLK <dbl>, TO <dbl>,
## #   DD2 <dbl>, TD3 <dbl>, PER <dbl>

joined_data %>% select(Team, PTS, FTM)

## # A tibble: 102 x 3
##    Team    PTS   FTM
##    <chr> <dbl> <dbl>
##  1 HOU    36.1   9.7
##  2 OKC    28     5.9
##  3 MIL    27.7   6.9
##  4 PHI    27.5   8.2
##  5 GS     27.3   3.8
##  6 TOR    26.6   6.1
##  7 GS     26     5.7
##  8 POR    25.8   5.9
##  9 BOS    23.8   3.2
## 10 UTAH   23.8   4.1
## # … with 92 more rows
…
